…
#How is the average price changing by `room_type` and the `municipio`?
data %>%
  group_by(f_municipio, f_room_type) %>%
  dplyr::summarize(mean_price = mean(price, na.rm=TRUE))
```

```
## `summarise()` has grouped output by 'f_municipio'. You can override using the
## `.groups` argument.
```

```
## # A tibble: 30 × 3
## # Groups:   f_municipio [10]
##    f_municipio  f_room_type     mean_price
##    <chr>        <fct>                <dbl>
##  1 Municipio1   Entire home/apt      187. 
##  2 Municipio1   Private room         125. 
##  3 Municipio1   Shared room           63.2
##  4 Municipio2   Entire home/apt      114. 
##  5 Municipio2   Private room          76.2
##  6 Municipio2   Shared room          114. 
##  7 Municipio2-9 Entire home/apt      113. 
##  8 Municipio2-9 Private room          82  
##  9 Municipio2-9 Shared room           43  
## 10 Municipio3   Entire home/apt      131. 
## # … with 20 more rows
```
…
